Making Maps with feltr – Christopher T. Kenny
…
library(here)

here() starts at /Users/chris/Documents/GitHub/christopherkenny.github.io

One of the cool things with Felt is its “Upload Anything” feature, where we can upload anything. Here, we have a csv file of addresses for every Dunkin in Cambridge. It is simple, just text addresses separated into appropriate fields.

path_dunkin_ma <- here('posts/2023-07-07-making-maps-with-feltr/dunkin_ma.csv')
read_csv(path_dunkin_ma, show_col_types = FALSE)

# A tibble: 1,062 × 5
   address           city     state zipcode    id
   <chr>             <chr>    <chr> <chr>   <dbl>
 1 147 N Quincy St   Abington MA    02351       1
 2 259 Brockton Ave  Abington MA    02351       2
 3 323 Centre Ave    Abington MA    02351       3
 4 937 Bedford St    Abington MA    02351       4
 5 100 Powdermill Rd Acton    MA    01720       5
 6 182 Great Rd      Acton    MA    01720       6
 7 212 Main St       Acton    MA    01720       7
 8 315 Main St       Acton    MA    01720       8
 9 44 Great Rd       Acton    MA    01720       9
10 150 S Main St     Acushnet MA    02743      10
# ℹ 1,052 more rows
…
